<?xml version="1.0" encoding="iso-8859-1"?>
<!-- Generator: Adobe Illustrator 19.0.0, SVG Export Plug-In . SVG Version: 6.00 Build 0)  -->
<svg version="1.1" id="Layer_1" xmlns="http://www.w3.org/2000/svg" xmlns:xlink="http://www.w3.org/1999/xlink" x="0px" y="0px"
	 viewBox="0 0 512 512" style="enable-background:new 0 0 512 512;" xml:space="preserve">
<rect x="23.687" y="146.025" style="fill:#009E2F;" width="150.465" height="125.388"/>
<rect x="23.687" y="146.025" style="opacity:0.1;enable-background:new    ;" width="18.186" height="125.388"/>
<path style="fill:#999999;" d="M128.08,267.782c0,1.723-1.411,3.135-3.135,3.135H50.777c-1.724,0-3.135-1.412-3.135-3.135v-82.895
	c0-1.724,1.411-3.135,3.135-3.135h74.168c1.724,0,3.135,1.411,3.135,3.135v82.895H128.08z"/>
<g>
	<rect x="47.642" y="190.433" style="fill:#737373;" width="80.437" height="15.673"/>
	<rect x="47.642" y="218.415" style="fill:#737373;" width="80.437" height="15.673"/>
	<rect x="47.642" y="245.812" style="fill:#737373;" width="80.437" height="15.673"/>
</g>
<path style="opacity:0.1;enable-background:new    ;" d="M61.649,267.782v-82.895c0-1.724,1.411-3.135,3.135-3.135H50.777
	c-1.724,0-3.135,1.411-3.135,3.135v82.895c0,1.723,1.411,3.135,3.135,3.135h14.007C63.06,270.917,61.649,269.507,61.649,267.782z"/>
<path style="fill:#35D34F;" d="M325.866,85.193H29.115c-2.873,0-5.224,2.351-5.224,5.224v65.124h307.2V90.417
	C331.091,87.544,328.74,85.193,325.866,85.193z"/>
<g style="opacity:0.1;">
	<path d="M56.001,85.193H29.115c-2.873,0-5.224,2.351-5.224,5.224v65.124h26.886V90.417C50.777,87.544,53.128,85.193,56.001,85.193z
		"/>
</g>
<g>
	<path style="fill:#009E2F;" d="M53.128,116.017H42.679c-4.328,0-7.837-3.509-7.837-7.837s3.509-7.837,7.837-7.837h10.449
		c4.328,0,7.837,3.509,7.837,7.837C60.965,112.509,57.456,116.017,53.128,116.017z"/>
	<path style="fill:#009E2F;" d="M87.609,116.017H77.16c-4.328,0-7.837-3.509-7.837-7.837s3.509-7.837,7.837-7.837h10.449
		c4.328,0,7.837,3.509,7.837,7.837C95.446,112.509,91.937,116.017,87.609,116.017z"/>
	<path style="fill:#009E2F;" d="M122.091,116.017h-10.449c-4.328,0-7.837-3.509-7.837-7.837s3.509-7.837,7.837-7.837h10.449
		c4.328,0,7.837,3.509,7.837,7.837C129.928,112.509,126.419,116.017,122.091,116.017z"/>
	<path style="fill:#009E2F;" d="M156.573,116.017h-10.449c-4.328,0-7.837-3.509-7.837-7.837s3.509-7.837,7.837-7.837h10.449
		c4.328,0,7.837,3.509,7.837,7.837C164.409,112.509,160.901,116.017,156.573,116.017z"/>
	<path style="fill:#009E2F;" d="M191.054,116.017h-10.449c-4.328,0-7.837-3.509-7.837-7.837s3.509-7.837,7.837-7.837h10.449
		c4.328,0,7.837,3.509,7.837,7.837C198.891,112.509,195.382,116.017,191.054,116.017z"/>
	<path style="fill:#009E2F;" d="M70.369,140.05H59.92c-4.328,0-7.837-3.509-7.837-7.837c0-4.328,3.509-7.837,7.837-7.837h10.449
		c4.328,0,7.837,3.509,7.837,7.837C78.205,136.541,74.697,140.05,70.369,140.05z"/>
	<path style="fill:#009E2F;" d="M104.85,140.05H94.401c-4.328,0-7.837-3.509-7.837-7.837c0-4.328,3.509-7.837,7.837-7.837h10.449
		c4.328,0,7.837,3.509,7.837,7.837C112.687,136.541,109.178,140.05,104.85,140.05z"/>
	<path style="fill:#009E2F;" d="M139.332,140.05h-10.449c-4.328,0-7.837-3.509-7.837-7.837c0-4.328,3.509-7.837,7.837-7.837h10.449
		c4.328,0,7.837,3.509,7.837,7.837C147.169,136.541,143.66,140.05,139.332,140.05z"/>
	<path style="fill:#009E2F;" d="M173.814,140.05h-10.449c-4.328,0-7.837-3.509-7.837-7.837c0-4.328,3.509-7.837,7.837-7.837h10.449
		c4.328,0,7.837,3.509,7.837,7.837C181.65,136.541,178.142,140.05,173.814,140.05z"/>
	<path style="fill:#009E2F;" d="M23.891,140.05h12.693c4.328,0,7.837-3.509,7.837-7.837c0-4.328-3.509-7.837-7.837-7.837H23.891
		V140.05z"/>
	<path style="fill:#009E2F;" d="M288.84,116.017h-10.449c-4.328,0-7.837-3.509-7.837-7.837s3.509-7.837,7.837-7.837h10.449
		c4.328,0,7.837,3.509,7.837,7.837C296.677,112.509,293.168,116.017,288.84,116.017z"/>
	<path style="fill:#009E2F;" d="M331.091,100.344h-18.218c-4.328,0-7.837,3.509-7.837,7.837s3.509,7.837,7.837,7.837h18.218V100.344
		z"/>
</g>
<path style="fill:#FFCB00;" d="M325.866,270.694c2.873,0,5.224-2.351,5.224-5.224V152.556c0-2.873-1.815-6.72-4.032-8.546
	l-81.883-67.441c-2.218-1.828-5.847-1.826-8.066,0l-81.883,67.441c-2.218,1.826-4.032,5.673-4.032,8.546V265.47
	c0,2.873,2.351,5.225,5.224,5.225h169.448V270.694z"/>
<path style="opacity:0.1;enable-background:new    ;" d="M161.959,157.976c0-2.873,1.815-6.72,4.032-8.546l81.883-67.441
	c0.706-0.582,1.561-0.956,2.463-1.168l-5.163-4.252c-2.218-1.828-5.847-1.826-8.066,0l-81.883,67.441
	c-2.218,1.826-4.032,5.673-4.032,8.546V265.47c0,2.873,2.351,5.224,5.224,5.224h5.541V157.976z"/>
<path style="fill:#B79363;" d="M287.725,226.799c0,1.724-1.411,3.135-3.135,3.135h-40.842c-1.724,0-3.135-1.411-3.135-3.135v-38.652
	c0-1.723,1.411-3.135,3.135-3.135h40.842c1.724,0,3.135,1.412,3.135,3.135V226.799z"/>
<path style="opacity:0.1;enable-background:new    ;" d="M251.82,226.799v-38.652c0-1.723,1.411-3.135,3.135-3.135h-11.207
	c-1.724,0-3.135,1.412-3.135,3.135v38.652c0,1.724,1.411,3.135,3.135,3.135h11.207C253.231,229.934,251.82,228.524,251.82,226.799z"
	/>
<path style="fill:#CCA679;" d="M241.671,226.799c0,1.724-1.411,3.135-3.135,3.135h-40.843c-1.724,0-3.135-1.411-3.135-3.135v-38.652
	c0-1.723,1.411-3.135,3.135-3.135h40.843c1.724,0,3.135,1.412,3.135,3.135V226.799z"/>
<path style="opacity:0.1;enable-background:new    ;" d="M205.845,226.799v-38.652c0-1.723,1.411-3.135,3.135-3.135h-11.286
	c-1.724,0-3.135,1.412-3.135,3.135v38.652c0,1.724,1.411,3.135,3.135,3.135h11.286C207.256,229.934,205.845,228.524,205.845,226.799
	z"/>
<path style="fill:#8C6748;" d="M218.644,267.559c0,1.724-1.411,3.135-3.135,3.135h-40.842c-1.724,0-3.135-1.411-3.135-3.135v-38.652
	c0-1.724,1.411-3.135,3.135-3.135h40.842c1.724,0,3.135,1.411,3.135,3.135V267.559z"/>
<path style="opacity:0.1;enable-background:new    ;" d="M182.857,267.559v-38.652c0-1.724,1.411-3.135,3.135-3.135h-11.325
	c-1.724,0-3.135,1.411-3.135,3.135v38.652c0,1.724,1.411,3.135,3.135,3.135h11.325C184.268,270.694,182.857,269.284,182.857,267.559
	z"/>
<path style="fill:#8C6748;" d="M310.753,267.559c0,1.724-1.411,3.135-3.135,3.135h-40.842c-1.724,0-3.135-1.411-3.135-3.135v-38.652
	c0-1.724,1.411-3.135,3.135-3.135h40.842c1.724,0,3.135,1.411,3.135,3.135V267.559z"/>
<path style="opacity:0.1;enable-background:new    ;" d="M274.808,267.559v-38.652c0-1.724,1.411-3.135,3.135-3.135h-11.167
	c-1.724,0-3.135,1.411-3.135,3.135v38.652c0,1.724,1.411,3.135,3.135,3.135h11.167C276.219,270.694,274.808,269.284,274.808,267.559
	z"/>
<path style="fill:#A07C50;" d="M264.698,267.559c0,1.724-1.411,3.135-3.135,3.135h-40.842c-1.724,0-3.135-1.411-3.135-3.135v-38.652
	c0-1.724,1.411-3.135,3.135-3.135h40.842c1.724,0,3.135,1.411,3.135,3.135V267.559z"/>
<path style="opacity:0.1;enable-background:new    ;" d="M228.833,267.559v-38.652c0-1.724,1.411-3.135,3.135-3.135h-11.246
	c-1.724,0-3.135,1.411-3.135,3.135v38.652c0,1.724,1.411,3.135,3.135,3.135h11.246C230.243,270.694,228.833,269.284,228.833,267.559
	z"/>
<path style="fill:#737373;" d="M13.061,266.466c-2.873,0-5.224,2.351-5.224,5.224v19.669c0,2.873,2.351,5.224,5.224,5.224h53.57
	v-30.118H13.061L13.061,266.466z"/>
<g style="opacity:0.1;">
	<path d="M30.302,291.36V271.69c0-2.873,2.351-5.224,5.224-5.224H13.061c-2.873,0-5.224,2.351-5.224,5.224v19.669
		c0,2.873,2.351,5.224,5.224,5.224h22.465C32.653,296.584,30.302,294.233,30.302,291.36z"/>
</g>
<rect x="60.991" y="266.47" style="fill:#999999;" width="317.889" height="30.118"/>
<path style="fill:#FFCB00;" d="M493.89,217.645l-54.949-72.921c-1.723-2.286-5.475-4.158-8.338-4.158h-78.727
	c-2.863,0-5.206,2.342-5.206,5.205v150.813h145.147c2.863,0,5.206-2.343,5.206-5.205v-64.372
	C497.022,224.144,495.613,219.931,493.89,217.645z"/>
<path style="fill:#FF8500;" d="M497.022,232.245h-15.973c-2.863,0-5.206,2.342-5.206,5.205v41.291c0,2.863,2.343,5.205,5.206,5.205
	h15.973V232.245z"/>
<path style="fill:#00A9FF;" d="M447.622,195.089c0-1.723-0.849-4.261-1.887-5.638l-18.74-24.869
	c-1.038-1.377-3.298-2.504-5.022-2.504h-50.689c-1.724,0-3.135,1.411-3.135,3.135v46.975c0,1.723,1.411,3.135,3.135,3.135h73.203
	c1.724,0,3.135-1.412,3.135-3.135V195.089z"/>
<g style="opacity:0.1;">
	<path d="M390.792,212.189v-46.975c0-1.724,1.411-3.135,3.135-3.135h-22.643c-1.724,0-3.135,1.411-3.135,3.135v46.975
		c0,1.723,1.411,3.135,3.135,3.135h22.643C392.202,215.323,390.792,213.913,390.792,212.189z"/>
</g>
<path style="fill:#72563C;" d="M400.686,247.362h-24.7c-4.328,0-7.837-3.509-7.837-7.837c0-4.328,3.509-7.837,7.837-7.837h24.7
	c4.328,0,7.837,3.509,7.837,7.837C408.523,243.853,405.014,247.362,400.686,247.362z"/>
<ellipse style="fill:#4D4D4D;" cx="405.734" cy="313.741" rx="42.956" ry="43.029"/>
<ellipse style="fill:#D9D9D9;" cx="405.734" cy="313.741" rx="14.018" ry="14.041"/>
<ellipse style="fill:#4D4D4D;" cx="119.181" cy="313.741" rx="42.956" ry="43.029"/>
<ellipse style="fill:#BFBFBF;" cx="119.181" cy="313.741" rx="14.018" ry="14.041"/>
<path style="fill:#4D4D4D;" d="M504.163,364.606H7.837c-4.328,0-7.837-3.509-7.837-7.837c0-4.328,3.509-7.837,7.837-7.837h496.327
	c4.328,0,7.837,3.509,7.837,7.837C512,361.097,508.491,364.606,504.163,364.606z"/>
<g>
	<path style="fill:#737373;" d="M504.163,400.704H153.6c-4.328,0-7.837-3.509-7.837-7.837c0-4.328,3.509-7.837,7.837-7.837h350.563
		c4.328,0,7.837,3.509,7.837,7.837C512,397.195,508.491,400.704,504.163,400.704z"/>
	<path style="fill:#737373;" d="M119.118,400.704H7.837c-4.328,0-7.837-3.509-7.837-7.837c0-4.328,3.509-7.837,7.837-7.837h111.282
		c4.328,0,7.837,3.509,7.837,7.837C126.955,397.195,123.446,400.704,119.118,400.704z"/>
</g>
<g>
	<path style="fill:#4D4D4D;" d="M504.163,436.801h-91.429c-4.328,0-7.837-3.509-7.837-7.837s3.509-7.837,7.837-7.837h91.429
		c4.328,0,7.837,3.509,7.837,7.837S508.491,436.801,504.163,436.801z"/>
	<path style="fill:#4D4D4D;" d="M376.163,436.801H7.837c-4.328,0-7.837-3.509-7.837-7.837s3.509-7.837,7.837-7.837h368.327
		c4.328,0,7.837,3.509,7.837,7.837S380.491,436.801,376.163,436.801z"/>
</g>
<path style="fill:#737373;" d="M498.939,273.58h-27.525c-2.873,0-5.224,2.351-5.224,5.224v22.743h32.749
	c2.873,0,5.224-2.351,5.224-5.224v-17.519C504.163,275.931,501.812,273.58,498.939,273.58z"/>
<g>
</g>
<g>
</g>
<g>
</g>
<g>
</g>
<g>
</g>
<g>
</g>
<g>
</g>
<g>
</g>
<g>
</g>
<g>
</g>
<g>
</g>
<g>
</g>
<g>
</g>
<g>
</g>
<g>
</g>
</svg>
